
<svg width="158px" height="51px" viewBox="262 176 158 51" version="1.1" xmlns="http://www.w3.org/2000/svg" xmlns:xlink="http://www.w3.org/1999/xlink">
    <!-- Generator: Sketch 40.1 (33804) - http://www.bohemiancoding.com/sketch -->
    <desc>Created with Sketch.</desc>
    <defs></defs>
    <g id="logo" stroke="none" stroke-width="1" fill="none" fill-rule="evenodd" transform="translate(262.000000, 176.000000)">
        <rect id="Rectangle-path-Copy" fill="#F3E411" x="1.93195427" y="21.9103745" width="9.25462256" height="9.29778203"></rect>
        <ellipse id="Oval-Copy-2" fill="#3FC6AB" cx="6.72600558" cy="44.7527091" rx="5.72600558" ry="5.75270913"></ellipse>
        <ellipse id="Oval-Copy" fill="#F6A623" cx="6.72600558" cy="7.75270913" rx="5.72600558" ry="5.75270913"></ellipse>
        <path d="M38.6854579,1.00374423 L32.7200319,1.00374423 L32.7200319,48.3051912 L38.6854579,48.3051912 L38.6854579,1.00374423 Z M103.360267,3.19943474 C99.7429338,1.00374423 95.4909812,0 91.3024906,0 C77.2139312,0 65.8542369,10.9157185 65.8542369,24.9054038 C65.8542369,38.5814189 77.1504692,49.3089354 90.7947947,49.3089354 C94.9832854,49.3089354 99.6794718,48.1169891 103.360267,45.9840327 L103.360267,39.020557 C99.8063958,42.1572578 95.3005953,43.9138102 90.6044088,43.9138102 C79.9427963,43.9138102 71.819663,35.0683141 71.819663,24.7172017 C71.819663,14.2406213 80.0062583,5.39512525 90.7313328,5.39512525 C95.2371333,5.39512525 99.9333197,7.02620963 103.360267,10.0374423 L103.360267,3.19943474 Z M131.354051,48.3051912 L157.056153,48.3051912 L157.056153,42.9100659 L137.319477,42.9100659 L137.319477,25.0308718 L156.484995,25.0308718 L156.484995,19.6357465 L137.319477,19.6357465 L137.319477,6.39886948 L157.056153,6.39886948 L157.056153,1.00374423 L131.354051,1.00374423 L131.354051,48.3051912 Z" id="ICE" fill="#FFFFFF"></path>
    </g>
</svg>