<?xml version="1.0" encoding="UTF-8" standalone="no"?>
<svg width="124px" height="40px" viewBox="0 0 124 40" version="1.1" xmlns="http://www.w3.org/2000/svg" xmlns:xlink="http://www.w3.org/1999/xlink" xmlns:sketch="http://www.bohemiancoding.com/sketch/ns">
    <defs>
        <linearGradient x1="-20.7106781%" y1="50%" x2="50%" y2="-20.7106781%" id="linearGradient-1">
            <stop stop-color="#F2D915" offset="0%"></stop>
            <stop stop-color="#E5B01B" offset="100%"></stop>
        </linearGradient>
        <linearGradient x1="50%" y1="0%" x2="50%" y2="100%" id="linearGradient-2">
            <stop stop-color="#3FCCA1" offset="0%"></stop>
            <stop stop-color="#32A87C" offset="100%"></stop>
        </linearGradient>
        <linearGradient x1="0%" y1="0%" x2="100%" y2="0%" id="linearGradient-3">
            <stop stop-color="#E88A1E" offset="0%"></stop>
            <stop stop-color="#D6751C" offset="100%"></stop>
        </linearGradient>
    </defs>
    <g id="user-management" stroke="none" stroke-width="1" fill="none" fill-rule="evenodd" sketch:type="MSPage">
        <g id="user-management-00" sketch:type="MSArtboardGroup" transform="translate(-657.000000, -219.000000)">
            <g id="logo" sketch:type="MSLayerGroup" transform="translate(657.000000, 219.000000)">
                <rect id="Rectangle-path-Copy" fill="url(#linearGradient-1)" sketch:type="MSShapeGroup" x="1.51170694" y="16.9955779" width="7.29916677" height="7.29916677"></rect>
                <circle id="Oval-Copy-2" fill="url(#linearGradient-2)" sketch:type="MSShapeGroup" cx="5.80645161" cy="35.483871" r="4.51612903"></circle>
                <circle id="Oval-Copy" fill="url(#linearGradient-3)" sketch:type="MSShapeGroup" cx="5.80645161" cy="5.80645161" r="4.51612903"></circle>
                <path d="M30.5114128,0.787983255 L25.8064516,0.787983255 L25.8064516,37.9216942 L30.5114128,37.9216942 L30.5114128,0.787983255 Z M81.5207556,2.51169663 C78.6677472,0.787983255 75.3142111,0 72.0107277,0 C60.899011,0 51.9395637,8.5693179 51.9395637,19.5518345 C51.9395637,30.2881064 60.8489582,38.7096774 71.6103055,38.7096774 C74.9137888,38.7096774 78.6176944,37.7739473 81.5207556,36.0994829 L81.5207556,30.6328491 C78.7178,33.0952967 75.1640527,34.4742674 71.4601472,34.4742674 C63.0512804,34.4742674 56.6445248,27.530165 56.6445248,19.4040877 C56.6445248,11.1795124 63.1013332,4.23541 71.5602527,4.23541 C75.114,4.23541 78.8179055,5.51588279 81.5207556,7.87983255 L81.5207556,2.51169663 Z M103.599593,37.9216942 L123.870968,37.9216942 L123.870968,33.6862842 L108.304554,33.6862842 L108.304554,19.6503324 L123.420493,19.6503324 L123.420493,15.4149224 L108.304554,15.4149224 L108.304554,5.02339325 L123.870968,5.02339325 L123.870968,0.787983255 L103.599593,0.787983255 L103.599593,37.9216942 Z" id="ICE" fill="#FFFFFF" sketch:type="MSShapeGroup"></path>
            </g>
        </g>
    </g>
</svg>
